Getting Started • tidymrp
…
So now we know how many people are in each strata. But what do those people do?

Creating a model of responses

We want to build a model that can predict the response of any person. This is where the survey comes in useful. We can create a model to predict their response based on the socio-demographic information included in the poststratification frame. (This is often a limiting factor, though there are ways around it. To explore alternatives, look at the vignette on advanced poststratification.) We chose a poststratification frame that includes region and age, so our model should be based on that.

Model fitting is not a copy and paste job. For an overview, see [multilevel_regression_guide] and for a more in-depth discussion, read Statistical Rethinking or Bayesian Data Analysis.

Let’s look at our survey.

example_survey
#> # A tibble: 17,000 x 6
#>    region   age ethnicity gender non_negative_response binary_response
#>    <chr>  <int>     <int> <fct>                  <dbl>           <dbl>
#>  1 C         19         3 female               0.00571               0
#>  2 A         34         5 female               0.0723                0
#>  3 C         18         3 female               0.0106                0
#>  4 B         54         2 female               1.38                  1
#>  5 B         52         3 female               1.03                  1
#>  6 D         41         5 female               0.786                 0
#>  7 A         34         2 male                 0.0489                1
#>  8 A         78         3 male                 0.0444                1
#>  9 C         54         3 female               0.892                 1
#> 10 D         39         2 female               0.392                 0
#> # … with 16,990 more rows
…
Combining the model and poststratification

Now we have a model that predicts the response based on age and region. We also have a poststratification frame that tells us how many people are in each age and region strata. We can get the estimates for each section we are interested in now.

add_proportion(poststratification_frame,
               model_variables = c(age_group, region),
               estimates_by = region)
#> Joining, by = "region"
#> # A tibble: 30 x 4
#> # Groups:   age_group, region [30]
#>    age_group region population_total strata_proportion
#>    <chr>     <chr>             <int>             <dbl>
#>  1 16_to_24  A                 33234             0.166
#>  2 16_to_24  B                 33176             0.166
#>  3 16_to_24  C                 33103             0.166
#>  4 16_to_24  D                 33185             0.165
#>  5 16_to_24  E                 33202             0.166
#>  6 25_to_34  A                 33237             0.166
#>  7 25_to_34  B                 33360             0.167
#>  8 25_to_34  C                 33489             0.167
#>  9 25_to_34  D                 33298             0.166
#> 10 25_to_34  E                 33454             0.167
#> # … with 20 more rows
…
